"연번","자치구","등급","호텔명","법인명","부대시설현황","객실수","소재지/홈페이지주소","등록연월(변경등록)"
"1","종로구","특1급","JW 메리어트 동대문 스퀘어 서울","박용민 ","","170","종로구 청계천로 279(종로6가 289-3외 1필지)","2013-12-30"
"1","종로구","1급","호텔크라운인사동","㈜종로크라운","휴게음식점","80","종로구 낙원동 25 www.hotelcrown.com","1980-04-01"
"1","종로구","2급","동대문관광호텔","㈜송일기업","휴게음식점 사우나","52","종로구 창신동 444-14","1968-05-01"
"1","영등포구","소형호텔","호텔컬러스레드","김명윤","","27","영등포구 양평동3가 30-8 (양산로1길 3-1)","2015-02-25"
"1","종로구","특2급","센터마크호텔","㈜센터마크호텔","","250","종로구 관훈동 198-42 www.centermarkhotel.com","2012-11-09"
"1","종로구","호스텔","Stay in GAM","","","15","서울 종로구 율곡로 10길 12","2012-11-28"
"1","종로구","3급","삼호관광호텔","윤시한유영열","일반음식점(지상2층) / 미용업사우나(지상3층)","50","종로구 창신동 436-73 (청계천로 341)","1970-05-01(2014-11-03)"
"1","영등포구","가족호텔","매리엇이그제큐티브아파트먼트서울","아프라나서울㈜","","103","서울 영등포구 여의도동 28","2007-08-01"
"1","종로구","-","라마다 서울 종로 ","㈜폴앤파트너스  신상범","","139","종로구 안의동 48-26","2014-01-09"
"2","종로구","호스텔","ICON","","","28","종로구 삼일대로 32가길 20","2013-01-28"
"2","종로구","1급","이비스앰배서더 서울인사동","주명건","","363","종로구 익선동 34-8","2013-09-27"
"2","종로구","특2급","호텔 아벤트리종로","㈜아벤트리종로","","155","종로구 견지동 65-1 www.aventreehotel.com","2012-09-28"
"2","중구","-","신신호텔 2","한성수력산업㈜ 김화영","","45","서울시 중구 남대문로5길 17-5 (북창동)","2013-06-19"
"2","종로구","2급","센츄럴관광호텔","㈜센츄럴","휴게음식점","78","종로구 장사동 227-1","1969-05-01"
"2","종로구","3급","서울YMCA관광호텔","(재)서울기독교 청년회유지재단","레스토랑","30","종로구 종로2가 9 www.ymca.or.kr/hotel","1967-04-03"
"2","영등포구","소형호텔","호텔컬러스블루","정구민","","27","영등포구 양평동3가 30-26 (양산로1길 5)","2015-02-25"
"2","중구","특1급","호텔 롯데","(주)호텔롯데","","1151","서울 중구 소공동 1 www.hotel.lotte.co.kr","1987-08-11"
"2","종로구","가족호텔","프레이저스위츠 서울가족호텔","금보개발","","213","서울 종로구 낙원동 272(인사동4길18) www.frasersuiteseoul.co.kr","2007-09-01"
"3","중구","특1급","서울 신라호텔","(주)호텔신라","","464","서울 중구 장충동2가 202 www.shilla.net","1978-12-23"
"3","중구","-","티마크호텔"," ㈜마크호텔","","288","중구 충무로 15 (충무로3가)","2013-10-16"
"3","종로구","특2급","호텔 세븐스트리트","㈜금도유니버셜","식당 커피숍","163","종로구 관수동 125-1 www.sutton.co.kr","2012-04-04(2014-01-16)"
"3","종로구","3급","노블관광호텔","김병호","","34","종로구 율곡로6길 13-3","2013-05-03"
"3","중구","가족호텔","반얀트리 클럽앤호텔 서울","에이블현대호텔 앤리조트(주)","","50","서울 중구 장충동2가 산5-5 www.towerhotel.co.kr","1987-07-08"
"3","종로구","2급","동화킴스관광호텔","서석해","휴게음식점","51","종로구 평창동 66-50 www.kimshotel.co.kr","1990-04-02"
"3","중구","1급","서울렉스호텔","(주)남강건설회관","","108","서울 중구 회현동1가 65 www.hotelrex.co.kr","1970-01-12"
"3","종로구","호스텔","옐로우브릭 호스텔","㈜레지던스월드","","37","종로구 삼일대로 32가길 33","2013-02-14"
"4","중구","특1급","밀레니엄서울 힐튼","(주)씨디엘 호텔코리아","","679","서울 중구 남대문로5가 395(소월로50) www.millenniumseoulhilton.co.kr","1989-05-04"
"4","종로구","호스텔","옐로우브릭 호스텔2","㈜레지던스월드","","21","종로구 돈화문로 66","2013-04-08"
"4","용산구","2급","가야관광호텔","","3","51","용산구 갈월동 98-11번지  http://www.kayahotel.net/","1990-01-16"
"4","중구","3급","뉴오리엔탈  관광호텔","(주)뉴오리엔탈 관광호텔","","65","서울 중구 회현동3가 10(퇴계로14길 1)","1987-07-10"
"4","중구","1급","뉴국제호텔","(유)뉴국제호텔","","142","서울 중구 태평로1가 29-2 www.newkukjehotel.com","1977-02-28"
"4","중구","가족호텔","디에스디엘㈜  프레이저 플레이스 센트럴 서울","디에스디엘","","258","중구 순화동 214외1 www.fraserplace.co.kr","2008-10-22"
"4","성동구","-","JJ  HOTEL","김광수","","30","성동구 용답동 228-6","2013-02-06"
"4","중구","특2급","서울 로얄호텔","대한관광 개발(주)","","312","서울 중구 명동1가 6 www.seoulroyal.co.kr","1987-09-07"
"5","중구","1급","베스트웨스턴 뉴서울호텔","(주)뉴서울호텔","","186","서울 중구 태평로1가 29-1 www.bestwesternnewseoul.com","1969-10-15"
"5","중구","3급","호텔 파레스","","","52","서울 중구 회현동1가 92-6","2006-09-15"
"5","중구","가족호텔","프레이저플레이스  남대문 서울","디에스디엘","","252","중구 세종대로 58 (남대문로 4가)","2013-06-07"
"5","성동구","2급","비젼관광호텔","변대석","유흥주점","64","서울 성동구 도선동 2/ www.hotelvision.co.kr/","2005-04-29"
"5","종로구","호스텔","포춘 호스텔","박영록","","18","종로구 삼일대로 32길 38","2013-05-10"
"5","성동구","-","호텔컬리넌 도선","조순관","","70","성동구 무학로2길 47(도선동)","2013-12-23"
"5","중구","특2급","호텔프레지던트","백남관광㈜","","303","서울 중구 을지로1가 188-3 www.hotelpresident.co.kr","1969-03-28"
"5","중구","특1급","플라자호텔","한화호텔앤드 리조트(주)","","415","서울 중구 태평로2가 23 www.seoulplaza.co.kr","1976-09-01"
"6","중구","특1급","더웨스틴조선서울","㈜신세계조선호텔","","462","서울 중구 소공로 106(소공동) www.westinchosun.co.kr","1970-06-05"
"6","종로구","호스텔","호스텔코리아","권진수","","30","종로구 돈화문로 85(와룡동)","2013-05-24"
"6","동대문구","2급","부림관광호텔","(주)뉴부림호텔","커피?","54"," 전농동 620-27번지 ","1984-02-15"
"6","성동구","3급","아모렉스 관광호텔","㈜윤현디엔씨","일식 식당","56","서울 성동구 도선동 72/ http://www.amourexhotel.com/ ","2008-09-09"
"6","마포구","가족호텔","까사빌 신촌 서울","㈜H.T.C","없음","103","마포구 서강로 137(노고산동)","2012-03-08(2014-12-22)"
"6","중구","1급","사보이호텔","(주)사보이호텔","","105","서울 중구 충무로1가 23-1 www.savoyhotel.co.kr","1963-06-23"
"6","중구","특2급","코리아나호텔","(주)코리아나 호텔","","337","서울 중구 태평로1가 61-1 www.koreanahotel.com","1987-07-08"
"6","광진구","-","더클래식500 펜타즈호텔","학교법인  건국대학교","라운지바(1)","84","능동로 92 www.theclassic500.com","2012-05-09(2015-02-02)"
"7","마포구","가족호텔","더 엠 호텔","","없음","56","마포구 월드컵북로 120 www.hotelthem.com/","2012-10-22"
"7","동대문구","3급","BORJOMI BOUTIQUE SEOUL","이재갑","","36","동대문구 천호대로83길 98(장안동)","2014-02-25"
"7","종로구","호스텔","호스텔코리아 10호점","김학노","","9","종로구 종로 382(숭인동 200-33)","2014-02-04"
"7","중구","1급","프린스호텔","(주)서울프린스호텔","","100","서울 중구 남산동2가 1-1 www.hotelprinceseoul.com","1969-04-15"
"7","동대문구","-","BENIKEA Hotel 플라워","","회의실 ","38"," 청량리동 30-6번지 ","2011-11-04"
"7","성북구","2급","브라운관광호텔","신학주외4인","유흥주점  휴게음식점 일반음식점","50","성북구 보문동4가77-2","1991-04-13"
"7","중구","특2급","세종호텔서울","세종투자 개발㈜","","333","서울 중구 충무로2가 61-3 www.sejong.co.kr","1973-12-24"
"7","중구","특1급","그랜드앰배서더서울","(주)서한사","","413","서울 중구 장충동2가 186-54 www.ambatel.com","1975-12-02"
"8","중랑구","3급","메이관광호텔","호텔메이","","49","서울 중랑구 상봉동 89-3 www.hotelmai.com","2004-08-01"
"8","서초구","가족호텔","프로비스타 가족호텔","㈜프로비스타","음식점 커피숍 비즈니스센터 운동시설","170","서울 서초구 서초동 1677-8 www.provista.co.kr","2007-01-01"
"8","종로구","호스텔","24게스트하우스 인사동","나관석","","25","종로구 삼일대로17길8(관철동 7-5)","2014-02-14(2014-07-28)"
"8","중구","1급","메트로호텔","(주)메트로호텔","","75","서울 중구 을지로2가 199-33 www.metrohotel.co.kr","1963-06-26"
"8","중구","특2급","퍼시픽호텔","(주)퍼시픽호텔","","181","서울 중구 남산동2가 31-1 www.thepacifichotel.co.kr","1975-02-14"
"8","용산구","특1급","서울미라마(유) 그랜드하얏트서울","서울미라마(유)","","607","서울시 용산구 한남동 747-7  http://seoul.grand.hyatt.kr/","1978-05-15"
"8","은평구","2급","프라임인서울호텔","㈜프라임인서울호텔","레스토랑 커피숍","64","불광동 302-13 /www.primeseoul.com","1929-10-19"
"8","동대문구","-","K city HOTEL","(주)아시시","","38","동대문구 왕산로 192-2(전농동)","2014-02-27"
"9","양천구","2급","캠프 관광호텔","이기화 이승희","","50","양천구 가로공원길126 (신월동 87-13)","2013-10-17"
"9","중구","특2급","호텔 PJ","오일관광㈜ 풍전호텔","","271","서울 중구 인현동2가 73-1 www.poongjun.net","1970-07-01"
"9","강북구","3급","리치다이아몬드 호텔","위태국","","76","서울 강북구 삼양로 500-18  (수유동 274-1)","2013-10-25"
"9","광진구","특1급","워커힐호텔","㈜SK네트웍스 워커힐","제과점(2) 일반음식점(21)식품제조가공업(1) 단란주점(2) 카지노(1) 실내수영장(2) 실외수영장(1) 골프연습장(1) 약국(1) 의료시설(1) 면세점(1) 사우나(2) 이용실(2) 미용실(2)","930","광진구 워커힐로 177     www.walkerhill.co.kr","1963-08-22"
"9","종로구","호스텔","미오하우스","Lee Esther Hwa","","10","종로구 청계천로 229(종로5가 314-7)","2014-01-22"
"9","서대문구","가족호텔","신촌 EVER8 레지던스 호텔","㈜에버에이트","","57","신촌역로7(대현동 104-5외 11필지)","2014-12-23"
"9","중구","1급","이비스앰배서더 명동","(주)앰배스텔","","280","서울 중구 명동1가 59-5 ibis.ambatel.com/myeongdong","2007-07-03"
"9","중랑구","-","더홀릭관광호텔","","","69","서울시 중랑구 상봉동 90-3","2011-11-20"
"10","종로구","호스텔","24guesthouse 동대문마켓점","김병호","","10","종로구 종로46길 22 5층","2014-05-08"
"10","강서구","2급","에어포트 관광호텔","-","연회장 유흥주점 일반음식점","40","강서구 공항동 11-21 www.hotelairport.co.kr","1988-10-17"
"10","중구","1급","아스토리아 호텔","동곡상사(주)","","80","서울 중구 남학동 13-2","1960-06-10"
"10","강남구","가족호텔","오크우드프리미어","한무컨벤션㈜","피트니스수영장식당","280","서울 강남구 삼성동 159외 1(테헤란로87길 46) www.oakwoodpremier.co.kr ","2001-10-30"
"10","중구","특2급","베스트웨스턴프리미어호텔국도 ","국도관광개발(주)","","295","서울 중구 을지로4가 310 www.hotelkukdo.com","2007-04-03"
"10","서대문구","특1급","그랜드힐튼호텔","(유)동원아이엔씨","식당체육시설업은행 등","503","서울 서대문구 홍은동 201-1 www.grandhiltonseoul.com","2012-05-31"
"10","성북구","-","D.H 르네상스","김영균/이경애","일반음식점","30","성북구 동선동1가92-20","2011-12-14"
"10","도봉구","3급","소피아","원정례져산업","2","51","서울 도봉구 쌍문동 88-1","1990-08-21"
"11","마포구","호스텔","호스텔 코리아","이광재 이한직","","8","마포구 동교로 217","2014-10-28"
"11","강서구","2급","뉴리젠트 관광호텔","㈜대흥레져","커피숍 유흥주점 목욕장","40","강서구 화곡동 1111-7외 1필지","1989-10-25"
"11","중구","1급","호텔아카시아","(주)인세인","","134","서울 중구 을지로5가 99 www.hotelacacia.co.kr","2009-09-22"
"11","용산구","특2급","(주)호텔캐피탈","(주)호텔캐피탈","28","286","용산구 이태원동 22-76번지 / www.hotelcapital.co.kr","1998-08-22"
"11","강서구","특1급","메이필드호텔","정림개발㈜","유흥주점 일반음식점 휴게음식점 체육시설 골프연습장 목용장 소매점","239","강서구 외발산동 426외 1필지 www.mayfield.co.kr","2002-07-15"
"11","마포구","-","호텔야자","(주)호텔365 박정현","없음","42","마포구 서교동 377-1 hotelyouyang.com/(잔다리로67)","2001-05-11"
"11","은평구","3급","벨라지오관광호텔","","커피숍 노래방","52","불광동 285-14","2005-11-15"
"12","종로구","호스텔","호스텔 클로이","한수연","","18","종로구 종로16길 32-4(관철동 35-1)","2014-06-03"
"12","영등포구","2급","㈜도도관광호텔","","","55","서울 영등포구 영등포동2가 94-154","1996-01-01"
"12","서초구","3급","유원메이트관광호텔","유원메이트관광호텔㈜","주점 일반음식점 미용원","73","서울 서초구 서초동 1589-4 www.yuwonmatehotel.co.kr","2011-11-14"
"12","중구","1급","호텔마누","남풍산업(주)","","90","서울시 중구 퇴계로 90 www.hotelmanu.com","2012-11-30"
"12","구로구","특1급","쉐라톤서울  디큐브시티호텔","대성산업㈜","피트니스 사우나 스파 수영장 Bar 식당 연회장 비지니스센터","269","서울 구로구 신도림동 692","2011-09-08"
"12","마포구","-","써클호텔","","양식당","40","마포구 합정동 382-17 www.circlehotel.co.kr/","2005-04-14"
"12","성북구","특2급","홀리데이인 서울 성북","우영개발㈜","양식당중식당휴게음식점 제과점 일반음식점(연회장) 체력단련장","128","성북구 종암동3-1343","1990-04-07"
"13","영등포구","특1급","콘래드서울호텔","에스아이에프씨  호텔 디벨로프먼트㈜","","434","서울영등포구여의도동23","2012-10-01"
"13","마포구","-","메리골드호텔","현종필","","186","마포구 양화로 112","2013-02-05"
"13","마포구","특2급","베스트웨스턴프리미어 서울가든호텔","","중식당 양식당","362","마포구 도화동 169-1/ www.seoulgarden.co.kr/","1979-08-02"
"13","중구","1급","라마다호텔동대문","(주)폴앤파트너스","","154","서울시 중구 을지로5가 275-3외17 www.ramadadm.com","2012-01-19"
"13","강남구","3급","렉스관광호텔","","Bar식당","63","서울 강남구 논현1동 18-2","2004-05-13"
"13","종로구","호스텔","에이메스호텔","㈜어반아이콘","","30","종로구 율곡로 10길 11","2015-01-27"
"13","영등포구","2급","R관광호텔","","","92","서울 영등포구 영등포동1가 121-6","2009-09-01"
"14","광진구","2급","호텔 컬리넌 건대","","","55","광진구 군자동 350-6(동일로 212)","2014-01-08"
"14","강남구","3급","티파니관광호텔","","Bar식당","53","서울 강남구 청담동 132-17 www.tiffanyhotel.com","1994-03-30"
"14","마포구","-","HOTEL THE DESIGNERS","백승용 외 2인","","80","마포구 양화로 86","2013-02-05"
"14","마포구","특2급","㈜아주호텔서교","㈜아주호텔서교","일반식당","135","마포구 서교동 354-5/ www.hotelseokyo.co.kr/","1983-10-27"
"14","중구","1급","나인트리 호텔 명동","파르나스호텔(주)","","144","서울시 중구 충무로2가 63-2 www.ninetreehotel.com","2012-12-06"
"14","서초구","특1급","JW메리어트호텔  서울","센트럴관광개발㈜","음식점피트니스센터주점","497","서울 서초구 반포동 19-3 jw-marriott.co.kr                                                           ","2000-07-01"
"14","종로구","호스텔","아름호스텔","고성철","","6","종로구 율곡로 4길 11-3","2015-02-02"
"15","마포구","특2급","㈜롯데호텔 롯데시티호텔마포","㈜롯데호텔","부페","284","마포구 공덕동 467/ www.lottecityhotel.co.kr/","2009-03-06"
"15","중구","호스텔업","24게스트하우스 동대문","임병룡민경천","문화정보교류실","26","중구 을지로 280-2 (을지로7가)","2014-06-24"
"15","강남구","3급","호텔자이언트","성제기업㈜","사우나Bar","52","서울 강남구 삼성동 45-10","1987-06-27"
"15","중구","1급","더그래드 호텔 명동","엘케이관광㈜","","50","서울시 중구 명동8가길 38 (충무로 2가)","2013-02-21"
"15","서초구","2급","관광호텔 바빌론","㈜바빌론","커피숍 주점","81","서울 서초구 잠원동 18-5","2009-04-23"
"15","서초구","특1급","서울팔래스호텔㈜ 더블유에스개발","웨스테이트디벨롭먼트㈜","음식점 사우나 비스니스센터","357","서울 서초구 반포동 63-1 www.seoulpalace.co.kr(사평대로 160)","1982-06-01"
"15","강서구","-","칼튼 관광호텔","-","유흥주점 일반음식점","64","강서구 화곡동 1110-3","2003-02-27"
"16","마포구","특2급","스탠포드호텔코리아㈜ 스탠포드호텔서울","스탠포드호텔코리아㈜","레스토랑 수영장사우나","239","마포구 상암동 1587/ www.stanfordseoul.com/seoul","2011-10-10"
"16","동대문구","호스텔업","신설 레지던스 동대문","김미선","","","동대문구 신설동 76-32","2015-03-18"
"16","중구","1급","호텔아로파","호텔아로파㈜","","90","서울시 중구 세종대로16길 22 (북창동)","2013-06-07"
"16","강서구","-","공원 관광호텔","-","단란주점 휴게음식점","39","강서구 화곡동 371-21외 1필지","2007-04-24"
"16","서초구","특1급","The-K호텔","더케이호텔앤리조트 주식회사","음식점 수영장 공연장 체력단련장 골프연습장","252","서울 서초구 양재동 202 www.temf.co.kr","1991-03-01"
"16","강동구","3급","발리관광호텔","황재필  채효순","일반음식점 2개소","50","서울 강동구 성내동 417-5","1990-01-20"
"16","서초구","2급","프렌드관광호텔","㈜프렌드호텔","음식점 커피숍 주점","59","서울 서초구 서초동 1605-7 www.friendhotel.co.kr","1990-08-01"
"17","강남구","2급","녹스관광호텔","","Bar식당","41","서울 강남구 역삼동 677-13 www.noxhotel.com/","2011-10-13"
"17","강서구","특2급","베스트웨스턴 나이아가라호텔","㈜나이아가라관광","유흥주점 커피숍 연회장 일반음식점","98","강서구 염창동 259-2외 1필지 www.niagarahotel.co.kr","1987-02-06"
"17","강서구","-","티제이 관광호텔","-","일반음식점","36","강서구 외발산동 215","2003-09-03"
"17","강남구","특1급","그랜드 인터컨티넨탈 서울파르나스","파르나스호텔㈜","피트니스수영장Bar식당연회장","519","서울 강남구 삼성동 159-8 www.grandicparnas.com","1988-08-26(2014-11-20)"
"17","강동구","3급","바고관광호텔","서봉석","일반음식점 1개소","42","강동구 천호동 324-39","2012-09-07"
"17","중구","1급","써미트호텔","봉우물산㈜","","190","중구 장충단로 198 (장충동1가)","2013-10-08"
"18","강서구","-","붐 관광호텔","-","일반음식점","50","강서구 외발산동 282-2","2003-03-25"
"18","용산구","1급","(주)해밀톤호텔","해밀톤관광(주)","13","166","용산구 이태원동 119-2425외  www.hamilton.co.kr/","1975-07-29"
"18","강남구","2급","뉴힐탑관광호텔","삼원관광개발㈜","Bar연회장","82","서울 강남구 논현동 152 www.newhilltophotel.com/","1993-02-05"
"18","성북구","3급","리베라 호텔","남영진 외2","","69","성북구 동선동1가91","2014-09-04"
"18","강남구","특1급","노보텔앰배서더강남  서울","앰배서더즈㈜","피트니스수영장식당연회장","332","서울 강남구 역삼동 603 www.ambatel.com/gangnam/","1993-08-25"
"18","강서구","특2급","㈜호텔롯데롯데시티호텔 김포공항","㈜롯데호텔","식당 코인세탁실 체련장 비지니스센터","197","강서구 방화동 886외6필지 www.lottecityhotelgimpoairport.com/main/main.asp","2011-12-05"
"19","강서구","-","이지겔러리 관광호텔","-","일반음식점 유흥주점 체력단련장","56","강서구 화곡동 1097-4 www.eghotel.co.kr","2007-10-01(2014-11-21)"
"19","강남구","2급","다이내스티관광호텔","","Bar","64","서울 강남구 논현동 202-7 www.hoteldynasty.co.kr/","1989-12-20"
"19","관악구","3급","K2 호텔","㈜관전베스트먼트 이길영","","43","서울 관악구 신림로 64길 29 (신림동 1421-22)","2014-01-14"
"19","강남구","특1급","르네상스서울 호텔","남우관광㈜","피트니스사우나수영장Bar식당연회장","497","서울 강남구 역삼동 676 www.renaissance-seoul.com/","1988-06-03"
"19","구로구","특2급","베스트웨스턴프리미어 구로호텔","와이씨앤티㈜","회의실 식당 연회장","201","서울 구로구 구로동 1128-1","2010-12-01(2014-10-23)"
"19","용산구","1급","(주)크라운호텔","주)크라운호텔","0","191","용산구 이태원동 36-69 34-159외  www.hotelcrown.com/","1980-05-20"
"20","강남구","2급","제이비스 호텔","","Bar식당","53","서울 강남구 대치동 890-28 www.jbis.kr/","2012-01-17"
"20","강동구","3급","코리아관광호텔 ('15.4.13 일반숙박업전환)","하갑현 박영애","","0","강동구 성내동 199-7","2008-12-26"
"20","용산구","1급","아이피부티크호텔 (IP Boutique hotel)","아이피부티크호텔","6","132","용산구 한남동 737-32번지  www.ipboutiquehotel.com/","1988-09-28"
"20","강서구","-","메이트 관광호텔","-","레스토랑","57","강서구 화곡동 921-6외 5필지 www.matehotel.net","2008-10-29"
"20","강남구","특1급","인터컨티넨탈 서울 코엑스","파르나스호텔㈜","피트니스수영장식당연회장","654","서울 강남구 삼성동 159-8 www.iccoex.com/","1999-09-21"
"20","금천구","특2급","노보텔앰배서더독산  서울","㈜앰배텔","","219","서울 금천구 독산4동 1030-1 www.ambatel.com","1997-09-01"
"21","강서구","-","호텔 디아망","-","휴게음식점 연회장","48","강서구 외발산동 280-1외 2필지 www.hoteldiamant.co.kr","2009-12-30"
"21","광진구","1급","동서울관광호텔","㈜동서울관광호텔","의료시설(1) 면세점(1)","115","광진구 구의강변로 38","1991-04-13"
"21","강남구","특1급","임피리얼 팰리스  호텔","태승21㈜","피트니스사우나수영장Bar식당연회장","404","서울 강남구 논현동 248-7 www.imperialpalace.co.kr/","1987-02-06"
"21","강남구","2급","힐탑관광호텔","우창홀딩스㈜","Bar식당","57","서울 강남구 논현동 151-30 www.hotelhilltop.co.kr","1987-05-01"
"21","영등포구","특2급","렉싱턴호텔","","","235","서울 영등포구 여의도동 13-3","2001-03-01"
"22","영등포구","특2급","코트야드바이 메리어트","","","283","서울 영등포구 영등포동4가 442442-1","2009-09-01"
"22","송파구","2급","가락관광호텔","","연회장 커피숍&레스토랑","62","서울 송파구 가락동 98-5 www.hotelkarak.com","1990-03-01"
"22","광진구","1급","한강관광호텔","㈜한강관광호텔","사우나(1) 단란주점(2) 웨딩홀(1) 나이트클럽(1)","116","광진구 아차산로78길 147 www.hankanghotel.co.kr","1979-10-23"
"22","강남구","특1급","파크하얏트서울","현대산업개발㈜","피트니스식당","185","서울 강남구 대치동 995-14 www.parkhyattseoul.co.kr/","2005-03-29(2015-01-29)"
"22","강서구","-","호텔에스","-","일반음식점","88","강서구 화곡동 918-23외 2필지 www.s-hotel.co.kr","2011-07-20"
"23","강남구","특1급"," 호텔리츠칼튼서울","전원산업㈜","피트니스수영장Bar식당연회장","374","서울강남구 역삼동 602 www.ritzcarltonseoul.com/","1995-04-21"
"23","송파구","2급","잠실관광호텔","","비즈니스센터 연회장 레스토랑","53","서울 송파구 잠실동 250-9 www.js hotel.co.kr","1991-05-01"
"23","서초구","특2급","더리버사이드호텔","㈜가우플랜","음식점 운동시설 주점","109","서울 서초구 잠원동 6-1","1994-09-16(2014-10-01)"
"23","강서구","-","드어반 광광호텔","강인월","휴게음식점 ","46","강서구 곰달래로 24길 35","2013-01-14"
"23","동대문구","1급","(주)경남관광호텔","㈜경남관광호텔","레스토랑연회장","108"," 동대문구 장안동 366-7번지 ","1982-11-10"
"24","강남구","특2급","라마다서울호텔","라마다관광㈜","피트니스사우나Bar식당연회장","246","서울 강남구 삼성동 112-5(봉은사로 410) www.ramadaseoul.co.kr/","1986-12-20"
"24","송파구","특1급","롯데호텔월드","㈜호텔롯데","휘트니스센터 골프연습장 수영장 사우나 연회장 비즈니스센터 음식점","482","서울 송파구 잠실동 40-1/ www.lottehotelworld.com","1988-09-01"
"24","영등포구","2급","노바루스 관광호텔","이태근","","32","영등포구 양평동1가 9-28","2014-11-03(2015-01-19)"
"24","강서구","-","볼(VOLL) 관광호텔","최우영","","54","강서구 강서로5나길 30(화곡동905-8)","2013-02-25"
"24","강북구","1급","호텔  빅토리아","㈜빅토리아 산업개발","커피숍 웨딩홀","110","강북구 미아4동 42-8 www.hotelvictoria.co.kr","1991-04-26"
"25","강남구","특2급","머큐어 엠버서더  쏘도배 호텔","㈜희앤썬","피트니스사우나식당","288","서울 강남구 역삼동 642 mercureseoul.com","2012-03-22"
"25","강서구","-","골든서울호텔","㈜코콤텍 고성춘","","260","강서구 공항대로 663 (염창동260-7)","2013-09-25"
"25","중구","2급","호텔 스카이파크Ⅲ","(주)아이큐웰","","136","서울 중구 충무로2가 62-9외1 www.skyparkhotel.com","2011-09-28"
"25","강북구","1급","호텔 아카데미하우스","(재)기장  아카데미하우스","커피숍 한식당 양식당","52","서울 강북구 수유동 산76 www.academyhouse.co.kr","1994-09-27"
"26","강남구","특2급","베스트웨스턴 프리미어 강남","신세계개발㈜","피트니스식당","128","서울 강남구 논현동 205-9 www.bestwesterngangnam.com/","2005-03-09"
"26","관악구","2급","나이스타임 관광호텔","이정옥","","60","서울특별시 관악구 신림로64길 28(신림동)","2014-06-18"
"26","노원구","1급","노블레스관광호텔","(주)노블레스 관광호텔","일반음식점 나이트클럽. 예식장 세미나실 홀","85","서울 노원구 상계동 711-9 www.hotelnoblesse.co.kr","2001-02-04"
"26","금천구","-","이사벨관광호텔","장기석","","57","서울 금천구 독산동 150-1011","2004-11-01"
"27","송파구","2급","파로스 관광호텔","㈜파로스 관광호텔","연회장 레스토랑","52","서울시 송파구 잠실동 180","2012-12-11"
"27","강서구","1급","호텔 노스탈자","㈜쎄븐정보기술","일반음식점 무도유흥음식점 유흥주점","61","강서구 화곡동 1110외 1필지 www.hotelnostalgia.co.kr","1987-03-23"
"27","금천구","-","호텔마인드","정성우 외 1인","","66","서울 금천구 가산동 141-1","2006-12-01"
"27","강남구","특2급","삼정관광호텔","삼정관광호텔㈜","사우나Bar식당연회장","163","서울 강남구 역삼동 604-11 www.samjunghotel.co.kr/","1982-02-09"
"28","강서구","1급","리버파크 관광호텔","㈜삼원종합주택","일반음식점 목욕장 유흥주점","81","강서구 염창동 260외 1필지 www.riverpark.co.kr","1989-12-07"
"28","강남구","특2급","호텔리베라 서울","신안관광㈜","피트니스사우나수영장Bar식당연회장","319","서울 강남구 청담동 53-7 www.hotelriviera.co.kr/index.asp","1987-12-10"
"28","강남구","-","베네치아","","Bar식당","62","서울 강남구 역삼동 606-28","2003-01-10"
"29","강남구","-","호텔 더 디자이너스","","식당","90","서울 강남구 삼성동 144-78 www.hotelthedesigners.com","2012-07-04"
"29","강남구","특2급","호텔엘루이","","Bar식당연회장","139","서울 강남구 청담동 129 www.ellui.com/","1992-04-10(2014-12-30)"
"29","강서구","1급","그린월드 관광호텔","-","제과점 휴게음식점 연회장 유흥주점 관광기념품점","52","강서구 등촌동 505-2외 5필지","1994-11-01"
"30","강남구","특2급","호텔프리마","호텔프리마㈜","사우나Bar식당연회장","120","서울 강남구 청담동 52-3 www.prima.co.kr/","1988-09-07"
"30","영등포구","1급","여의도관광호텔","","","107","서울 영등포구 여의도동 10-3","1975-03-01"
"30","강남구","-","호텔라미르 (파고다 호텔)","㈜파고다","사우나Bar식당연회장","150","서울 강남구 역삼동 662-7 www.hotellamir.co.kr/","2012-11-03"
"31","강남구","-","호텔G","","Bar","53","서울 강남구 논현동 56-21","2013-01-27"
"31","서초구","1급","호텔센트로","㈜센트로","음식점 사우나 비스니스센터 커피숍","94","서울 서초구 서초동 1594-3 www.centrohotel.co.kr","1999-03-01"
"32","강남구","-","호텔 컬리넌 역삼","조행자 김경미 이동직 한수민","Bar","54","서울 강남구 언주로87길 11 (역삼동 720-23)","2013-07-25"
"32","강남구","1급","호텔 그라모스","","","42","강남구 테헤란로33길 6-5 (강남구 역삼동 677-21)","2013-07-09"
"33","강남구","1급","그린그래스관광호텔","오석구","사우나Bar식당","77","서울 강남구 삼성동 141-10 www.greengrasshotel.com/","1988-12-08"
"33","송파구","-","필름 37.2","문귀선외 1","","83","송파구 방이동 46-6번지","2013-04-22"
"34","강남구","1급","선샤인 관광호텔","㈜선샤인","사우나Bar식당","111","서울 강남구 신사동 587-1 www.hotelsunshine.co.kr/","1988-07-30(2014-09-03)"
"34","강동구","-","투비인관광호텔","정해연","","92","강동구 길동 388-2(천중로42길 75)","2010-11-18"
"35","용산구","-","I.T.W호텔","이윤석","","71","용산구 우사단로14길 11 (이태원동 126-7외 3)","2013-10-01"
"35","강남구","1급","슈메르 (SUMER)","","피트니스사우나Bar식당","169","서울 강남구 논현동 236-8(봉은사로 223) www.seoulstarshotel.com/","2010-07-22"
"36","강남구","1급","영동관광호텔","용창산업㈜","Bar식당연회장","131","서울 강남구 논현동 6 www.youngdonghotel.co.kr/","1997-12-30"
"36","영등포구","-","로프트관광호텔","김창호","","58","영등포구선유동2로72(당산동5가)","2013-11-21"
"37","은평구","-","SOHO BOUTIQUE HOTEL(소호부띠크) 호텔 (이전 : 라비야호텔)","김정희","","30","은평구 진흥로138(녹번동)","2013-11-21"
"37","강남구","1급","이비스앰배서더 서울","앰배스텔㈜","식당","317","서울 강남구 대치동 893-1 www.ambatel.com","2003-10-13"
"38","서초구","-","호텔 소설(小雪)","서영우","","52","서초구 반포대로 14길 53","2014-04-11"
"38","강남구","1급","트리아관광호텔","","Bar식당","50","서울 강남구 역삼동 677-11 www.triahotel.co.kr/","2007-03-26"
"39","강남구","1급","팝그린관광호텔","","사우나Bar식당연회장","","서울 강남구 신사동 614-1 www.popgreenhotel.com/","2001-12-26"
"39","구로구","-","(주)호텔롯데롯데시티호텔 구로","(주)롯데호텔","","287","서울특별시 구로구 디지털로 300","2014-07-21"
"40","종로구","-","메이플레이스 호텔 서울 동대문","(주)메이플레이스","","107","종로구 율곡로 179","2014-07-21"
"40","강남구","1급","라까사관광호텔","㈜라까사호텔","식당","61","서울 강남구 신사동 527-23 www.hotellacasa.kr/","1990-02-27"
"41","송파구","1급","레이크관광호텔","","나이트클럽 사우나 게임룸 레스토랑","94","서울 송파구 석촌동 158 www.hotellake.co.kr","2002-12-01"
"41","중구","-","데이즈 호텔 명동","한시천","","64","중구 퇴계로 107","2014-07-22"
"42","강동구","-","하모니 관광호텔","박상일 외 2명","","81","천중로 40길 63(길동 387-1)","2014-07-24"
"42","송파구","1급","캘리포니아관광호텔","","커피숍 비즈니스클럽 레스토랑","130","서울 송파구 가락동 98-6 www. californiahotel.co.kr","2003-10-01"
"43","강서구","-","지엠빌 관광호텔","김미숙","","51","강서구 곰달래로 70-1 (화곡동 921-19)","2014-07-25"
"43","동대문구","1급","BENIKEA HOTEL KP","김병시","","112","동대문구 휘경동 319-12","2013-04-22"
"44","동작구","1급","카라쉬","박호준외1인","","64","동작구 동작대로1길 15 (사당동 1043-6)","2013-10-08"
"44","동대문구","-","호텔 부티크나인","오용석","","91","동대문구 왕산로 28(신설동)","2014-06-26"
"45","동대문구","-","라마다앙코르 동대문지점","신상범","","332","동대문구 왕산로 22(신설동)","2014-07-11"
"45","중구","1급","스카이호텔 동대문 1호","(주)아이큐웰","","254","서울시 중구 오장동 206-1 외2필지","2014-07-08"
"46","송파구","1급","로사나부띠끄호텔","","","81","송파구 삼학사로 98","2013-08-27"
"46","강서구","-","레인보우 관광호텔","신동진 이명화","","76","강서구 화곡동 924-101120124","2014-09-01"
"47","용산구","-","호텔 엘르인","㈜엘르인","","54","용산구 한강대로71길 24 (갈월동)","2014-09-22"
"48","강남구","-","호텔 신라스테이 역삼","신라스테이 주식회사","","306","강남구 언주로 517","2014-10-01"
"49","강남구","-","알로프트 서울 강남 호텔","신진우","","188","강남구 영동대로 736 (청담동 131번지)","2014-10-01"
"50","성동구","-","호텔 아띠 ATTI","주식회사 전앤코","","80","성동구 성수동2가 317-5","2014-09-22"
"51","강남구","-","에이치 에비뉴 호텔 역삼 (H Avenue Hotel Yeoksam)","박길영박미영박인숙 박지숙박미숙","","49","강남구 테헤란로29길 12(역삼동 678-14)","2014-10-10"
"52","중구","-","베이튼호텔","㈜메타월드","","166","중구 오장동 181-4 외 3","2014-10-10"
"53","은평구","-","CS Seoul Hotel","김석우 박종천","","70","은평구 통일로 585-2(응암동)","2014-10-31"
"54","종로구","-","고궁호텔","권혁범 신화자","","58","종로구 율곡로 164","2014-09-11"
"55","영등포구","-","마루 관광호텔 (NOVALUZ HOTEL)","김원희외 5명","","83","영등포구 영등포로 9","2014-11-27"
"56","영등포구","-","글래드호텔 여의도","오라관광㈜","","261","영등포구 의사당대로 16(여의도동)","2014-12-30"
"57","구로구","-","호텔 베르누이","김정의","","397","구로구 경인로 229(오류동)","2014-12-18"
"58","중구","-","제이비즈호텔(진지앙 인)","정봉원","","181","중구 창경궁로 20 (예관동 70-2 외 2)","2014-07-11"
"59","영등포구","-","스카리리버(SKY RIVER)","김광수 외 7","","146","영등포구 버드나무로 90","2015-01-23"
"60","강서구","-","베니키아서울호텔","오성영","","87","강서구 화곡로 68길 116","2015-01-26"
"61","강남구","-","호텔데님(Hotel Denim)","마광영 박성희 마재억","","88","강남구 논현로 66(개포동)","2015-02-03"
"62","마포구","-","호텔디오레","황은영","","39","마포구 서교동 351-29","2014-12-10"
"63","강서구","-","에스알 관광호텔","㈜청동주택","","80","강서구 등촌동 678-11","2014-11-25"
"64","중구","-","이비스버짓동대문","㈜링크케이","","195","중구 광희동2가 238-1","2014-10-29"
"65","중구","-","스타즈호텔 명동1호점","(주)모두스테이  맹찬호 양병선","","150"," 중구 을지로3가 95-7","2015-01-12"
"66","중구","-","유스테이 명동  레지던스 호스텔","굿모닝파크텔  주식회사 윤호길","","10"," 중구 오장동 90-24 2층 ","2015-01-16"
"67","중구","-","스타즈호텔 명동2호점","(주)모두스테이  맹찬호 양병선","","174"," 중구 충무로3가 58-8","2015-01-22"
"68","중구","-","호텔 파크뷰","김은태 최면호","","25"," 중구 예장동 1-43","2015-01-26"
"69","중구","-","남산시티호텔","김성일","","60"," 중구 회현동1가 194-30 외 1","2015-01-29"
"70","중구","-","서울 엔 호스텔","조정호","","20"," 중구 오장동 139-20","2015-02-12"
"71","중구","-","오리엔스 호텔  앤 레지던스","㈜더한 이재수","","116"," 중구 예장동 2-19","2015-02-17"
"72","중구","-","UI 호스텔","좌철수","","19"," 중구 충무로2가 51-17","2015-02-23"
"73","중구","-","이비스 스타일  앰배서더 서울명동","㈜서한관광개발  김봉환","","180"," 중구 충무로2가 53-10","2015-03-09"
"74","중구","-","스테이비 호텔 명동","㈜청산물산 정홍덕","","97"," 중구 충무로3가 30-1","2015-03-17"
"75","강남구","-","도미인프리미엄서울  가로수길호텔","㈜한국교리쯔 멘테나스","","212","서울 강남구 신사동 514-2","2015-03-05"
"76","영등포구","-","코모도드래곤관광호텔","김민중 외 1","","49","영등포구 영신로 32길 8번지","2015-04-09"
"77","동대문구","-","동경호텔","문성무","","60","동대문구 장안동 373-4","2014-10-30"
"78","동대문구","-","골든씨티호텔","임성용","일반음식점(1)휴게음식점(1)","116","동대문구 장안동 414-4","2014-11-28"
"79","강북구","-","쏠라리움시티호스텔","김용자","없음","108","강북구 덕릉로111","2014-03-25"
"80","동대문구","-","HOTEL BLACK STONE","김기찬","","","동대문구 장안동 366-2","2015-03-25"
"81","서대문구","-","신라스테이서대문","박상오","휘트니스미팅룸레스토랑","319","서대문구 충정로 76","2015-04-28"
"82","용산구","-","㈜신세계조선호텔 포포인츠 남산","㈜신세계조선호텔 성영목","일반음식점(바식당)","342","용산구 한강대로 366(동자동)","2015-04-24"
"83","영등포구","-","영등포 칸 관광호텔","이두기","","50","영등포구 버드나루로74","2015-05-18"