"공연코드","공연명","공연시작일","공연종료일","공연소개","요청시간","등록시간"
"19","신규 회원가입+예매자 경품 이벤트!","2012-06-22","2012-07-30","<p><a target='_blank' href='http://suyedang.com/shop/main/index.php'><img alt='' width='700' height='2166' src='http://www.nsartscenter.or.kr/upload/Events/20120625/120625_event.jpg' /></a></p>","2011-12-07 00:02:00.0","2011-12-07 00:02:00.0"
"9","NArT 페스티벌 場 관람후기 이벤트","2011-11-09","2011-12-12","<a target='_self' href='http://www.nsartscenter.or.kr/Home/Community/PerfPostScript.aspx?CurPage=1&amp;Category1=0&amp;Category2=948&amp;SrchType=1&amp;SrchTxt=&amp;BeUse=1&amp;SrtCol=0&amp;SrtFlg=DESC'><img alt='' width='700' height='1402' src='http://www.nsartscenter.or.kr/upload/Events/20111109/111109_event.jpg' /></a>","2010-11-01 00:09:00.0","2010-11-01 00:09:00.0"
"10","연극 <풍찬노숙> 사진 콘테스트","2011-12-19","2012-01-05","<a target='_self' href='http://www.nsartscenter.or.kr/Home/Community/PerfPostScript.aspx?CurPage=1&amp;Category1=0&amp;Category2=956&amp;SrchType=1&amp;SrchTxt=&amp;BeUse=1&amp;SrtCol=0&amp;SrtFlg=DESC'><img alt='' width='700' height='1042' src='http://www.nsartscenter.or.kr/upload/Events/20111216/111216_event.gif' /></a>","2010-11-01 23:06:00.0","2010-11-01 23:06:00.0"
"11","수예당화과자와 함께하는 설연휴 이벤트!","2012-01-06","2012-01-19","<a target='_blank' href='http://www.suyedang.com/shop/goods/goods_view.php?&amp;goodsno=319&amp;category=001'><img alt='수예당(로고)과 함께하는 설연휴 이벤트!' width='700' height='774' src='http://www.nsartscenter.or.kr/upload/Events/20120109/120106_event.gif' /></a>","2011-11-30 23:09:00.0","2011-11-30 23:09:00.0"
"14","2/2(목) 풍찬노숙 관람자 대상 깜짝 이벤트","2012-02-02","2012-02-02","<!--StartFragment--> <p class='바탕글' style='line-height: 120%; layout-grid-mode: char'><span style='font-family: 돋움'><span style='font-size: 13px'><span style='color: #339966; font-weight: bold; mso-ascii-font-family: 굴림; mso-hansi-font-family: 굴림'>남산예술센터 회원여러분~</span></span></span></p> <p class='바탕글' style='line-height: 120%; layout-grid-mode: char'><span style='font-family: 돋움'><span style='font-size: 13px'><span lang='EN-US' style='color: #339966; font-weight: bold; mso-hansi-font-family: 굴림; mso-fareast-font-family: 굴림'>2월의 두 번째 날 시작 어떠신가요?</span></span></span></p> <p class='바탕글' style='line-height: 120%; layout-grid-mode: char'><span style='font-family: 돋움'><span style='font-size: 13px'><span style='color: #339966; font-weight: bold; mso-ascii-font-family: 굴림; mso-hansi-font-family: 굴림'>기사를 보니 오늘이 35년 만에 가장 추운 날씨라고 합니다.</span></span></span></p> <p class='바탕글' style='line-height: 120%; layout-grid-mode: char'><span style='font-family: 돋움'><span style='font-size: 13px'><span style='color: #339966; font-weight: bold; mso-ascii-font-family: 굴림; mso-hansi-font-family: 굴림'>그래서 풍찬노숙 오늘 공연을 예매하신 회원님들의 오시는 발걸음을 </span></span></span></p> <p class='바탕글' style='line-height: 120%; layout-grid-mode: char'><span style='font-family: 돋움'><span style='font-size: 13px'><span style='color: #339966; font-weight: bold; mso-ascii-font-family: 굴림; mso-hansi-font-family: 굴림'>조금이나마 가볍게 해드리고자 깜짝 이벤트를 준비하였습니다.</span></span></span></p> <p class='바탕글' style='line-height: 120%; layout-grid-mode: char'><span style='font-family: 돋움'><span style='font-size: 13px'><span style='color: #339966; font-weight: bold; mso-ascii-font-family: 굴림; mso-hansi-font-family: 굴림'><br /> 매표소 오픈 시간 6시를 시작으로</span></span></span></p> <p class='바탕글' style='line-height: 120%; layout-grid-mode: char'><span style='font-family: 돋움'><span style='font-size: 13px'><span style='color: #339966; font-weight: bold; mso-ascii-font-family: 굴림; mso-hansi-font-family: 굴림'>유료구매 관객 선착순 열분께 '씨네코드 선재 영화 초대권'을 2매씩 드립니다!</span></span></span></p> <p class='바탕글' style='line-height: 120%; layout-grid-mode: char'><span style='font-family: 돋움'><span style='font-size: 13px'><span style='color: #339966; font-weight: bold; mso-ascii-font-family: 굴림; mso-hansi-font-family: 굴림'>풍찬노숙 보고 무료로 영화도 관람 하세요~!</span></span></span></p> <p class='바탕글' style='line-height: 120%; layout-grid-mode: char'><span style='font-family: Courier New'><span style='font-size: 13px'><img alt='' width='400' height='300' src='http://www.nsartscenter.or.kr/upload/Events/20120202/snc.JPG' />&nbsp; <br /> </span></span></p> <p class='바탕글' style='line-height: 120%; layout-grid-mode: char'><span style='font-family: 돋움'><span style='font-size: 13px'><span style='color: #339966; font-weight: bold; mso-ascii-font-family: 굴림; mso-hansi-font-family: 굴림'>아직 씨네코드 선재를 모르시다면? 아래를 클릭하세요!^^</span></span><br /> <br /> </span><span style='font-family: Courier New'><span style='font-size: 13px'><span lang='EN-US' style='color: #339966; font-weight: bold; mso-hansi-font-family: 굴림; mso-fareast-font-family: 굴림'><a href='http://cafe.naver.com/artsonjearthall'><span style='font-family: 돋움'>http://cafe.naver.com/artsonjearthall</span></a></span></span></span><span style='font-family: 돋움'><br /> &nbsp;</span></p> <span style='font-family: 돋움'><br /> </span>","2011-12-01 23:05:00.0","2011-12-01 23:05:00.0"
"15","봄이 오면 남산을 거닐고 싶다","2012-03-08","2012-04-30","<img alt='' width='700' height='838' src='http://www.nsartscenter.or.kr/upload/Events/20120307/120306_event.jpg' />","2011-12-03 00:07:00.0","2011-12-03 00:07:00.0"
"16","878미터의 봄 관람후기 이벤트","2012-03-20","2012-04-10","<a target='_self' href='http://www.nsartscenter.or.kr/Home/Community/PerfPostScript.aspx?CurPage=1&amp;Category1=0&amp;Category2=959&amp;SrchType=1&amp;SrchTxt=&amp;BeUse=1&amp;SrtCol=0&amp;SrtFlg=DESC'><img alt='' width='700' height='1144' src='http://www.nsartscenter.or.kr/upload/Events/20120322/120321_봄이오면이벤트.jpg' /></a>","2011-12-02 22:02:00.0","2011-12-02 22:02:00.0"
"17","봄의 노래.. '문화생활 지원' 이벤트!","2012-05-09","2012-05-31","<div style='text-align: center'><span style='font-size: 13px'><font face='맑은 고딕'>씨네코드 선재와 함께하는<br /> </font></span><span style='font-size: 14pt'><span style='font-size: 24px'><font face='맑은 고딕'>문화생활 지원 이벤트!</font></span></span></div> <div style='text-align: center'>&nbsp;<br /> &nbsp;</div> <div style='text-align: center'><u><span style='font-size: 12pt'><font face='맑은 고딕'>남산예술센터 홈페이지에서 연극 &lt;봄의 노래는 바다에 흐르고&gt;를 예매하시고</font></span></u></div> <div style='text-align: center'><span style='font-size: 12pt'><font face='맑은 고딕'>기대평을 댓글로 남겨주시는 분들 중 추첨하여 총 10명에게</font></span></div> <div style='text-align: center'><span style='font-size: 12pt'><font face='맑은 고딕'>&lsquo;나와 코드가 맞는 영화관&rsquo; 씨네코드 선재에서 볼 수 있는</font></span></div> <div style='text-align: center'><font face='맑은 고딕'><span style='font-size: 12pt'>영화 &lt;</span><span style='font-size: 12pt'>블루 발렌타인&gt; 관람권을 1인 2매 드립니다!</span></font></div> <div style='text-align: center'><span style='font-size: 12pt'><font face='맑은 고딕'>많은 응모 바랍니다.</font></span></div> <div style='text-align: center'>&nbsp;<br /> &nbsp;</div> <div style='text-align: center'>&nbsp;</div> <div style='text-align: center'><font size='2'><font face='맑은 고딕'>아직 영화관 &lsquo;씨네코드 선재&rsquo;를 모르신다면? 아래 클릭클릭!</font></font></div> <div style='text-align: center'><a href='http://cafe.naver.com/artsonjearthall'><font color='#0000ff' size='2' face='맑은 고딕'>http://cafe.naver.com/artsonjearthall</font></a></div> <div style='text-align: center'>&nbsp;<br /> &nbsp;</div> <div style='text-align: center'><font size='2' face='맑은 고딕'>=========================================================</font></div> <div style='text-align: center'><font size='2'><font face='맑은 고딕'><br /> 이벤트 기간 : 5월 9일(수) ~ 5월 31일(목)</font></font></div> <div style='text-align: center'><font size='2'><font face='맑은 고딕'>당첨자 발표 : 6월 1일(금)</font></font></div> <div style='text-align: center'><font size='2'><font face='맑은 고딕'>당첨 인원 : 10명 (1인 2매)</font></font></div> <div style='text-align: center'><font size='2'><font face='맑은 고딕'>초대권 사용 기간 : 6/1 ~ 6/30<br /> 블루 발렌타인 관람등급 : 18세 이상 관람가</font></font></div> <div style='text-align: center'>&nbsp;</div> <div style='text-align: center'><font size='2'><font face='맑은 고딕'>이벤트 문의 : 남산예술센터 극장운영팀 02) 758-2103</font></font></div> <div style='text-align: center'><span style='font-family: '맑은 고딕'; font-size: 10pt'>영화 관련 문의 : 씨네코드 선재 <strong><span style='font-family: '맑은 고딕'; font-weight: normal'>02) 730-3200</span></strong></span></div> <div style='text-align: center'>&nbsp;</div> <div style='text-align: center'><font size='2' face='맑은 고딕'>=========================================================</font></div> <img alt='' width='700' height='1005' src='http://www.nsartscenter.or.kr/upload/Events/20120509/블루발렌타인_포스터(웹용)1.jpg' /><br />","2011-12-04 22:04:00.0","2011-12-04 22:04:00.0"
"12","풍찬노숙 관람후기 이벤트","2012-01-18","2012-02-13","<a target='_self' href='http://www.nsartscenter.or.kr/Home/Community/PerfPostScript.aspx?CurPage=1&amp;Category1=0&amp;Category2=956&amp;SrchType=1&amp;SrchTxt=&amp;BeUse=1&amp;SrtCol=0&amp;SrtFlg=DESC'><img width='700' height='1201' alt='' src='http://www.nsartscenter.or.kr/upload/Events/20120120/120120_event.gif' /></a>","2011-11-30 22:00:00.0","2011-11-30 22:00:00.0"
"18","'남산예술센터 회원제'의 이름을 지어주세요!","2012-06-11","2012-07-29","<img width='700' height='945' alt='' src='http://www.nsartscenter.or.kr/upload/Events/20120622/120608_event1.jpg' />","2011-12-05 22:02:00.0","2011-12-05 22:02:00.0"
"21","전명출 평전 관람후기 이벤트","2012-07-10","2012-08-05","<a href='http://www.nsartscenter.or.kr/Home/Community/PerfPostScript.aspx'><br /> <img alt='' width='694' height='1140' src='http://www.nsartscenter.or.kr/upload/Events/20120712/전명출평전후기이벤트.jpg' /></a>","2011-12-06 23:02:00.0","2011-12-06 23:02:00.0"
"23","[사이코패스] 대림미술관<핀 율 탄생 100주년 전 - 북유럽 가구이야기> 초대이벤트 혹시 나...사이코...?","2012-08-31","2012-09-09","<img src='http://www.nsartscenter.or.kr/upload/Events/20120831/사이코패스_대림이벤트2.jpg' alt='대림미술관_이벤트' width='700' height='1164' /><br />","2011-12-07 21:01:00.0","2011-12-07 21:01:00.0"
"24","회원제 이름 설문조사!! (기간연장)","2012-08-31","2012-10-31","<a href='http://www.nsartscenter.or.kr/Home/Community/Survey.aspx?smode=7&amp;ids=3&amp;page=1'><img alt='' width='700' height='617' src='http://www.nsartscenter.or.kr/upload/Events/20121010/회원제이름설문(기간연장).jpg' /></a>","2011-10-30 23:00:00.0","2011-10-30 23:00:00.0"
"25","사이코패스 관람후기이벤트","2012-09-22","2012-10-14","<a href='http://www.nsartscenter.or.kr/Home/Community/PerfPostScript.aspx'><img alt='후기이벤트' width='694' height='1086' src='http://www.nsartscenter.or.kr/upload/Events/20120924/사이코패스후기이벤트.jpg' /></a><br />","2011-12-08 22:04:00.0","2011-12-08 22:04:00.0"
"26","남산예술센터 회원 서울세계무용축제 15%할인 쿠폰!","2012-10-08","2012-10-20","&nbsp;<img src='http://www.nsartscenter.or.kr/upload/Events/20121008/시댄스.jpg' alt='시댄스' width='0' height='0' /><img src='http://www.nsartscenter.or.kr/upload/Events/20121008/시댄스1.jpg' alt='시댄스' width='0' height='0' /><br /> <a href='http://www.sidance.org/2012/main.php'><img src='http://www.nsartscenter.or.kr/upload/Events/20121008/시댄스3.jpg' width='700' height='1559' alt='' /></a><br /> <br /> <br /> <img src='http://www.nsartscenter.or.kr/upload/Events/20121008/할인권.jpg' width='700' height='400' alt='' /><br /> <br /> <br type='_moz' />","2011-10-31 00:08:00.0","2011-10-31 00:08:00.0"
"28","햄릿과 햄릿과의 만남 (관객과의 대화)","2012-10-29","2012-11-11","<img width='700' height='1667' alt='' src='http://www.nsartscenter.or.kr/upload/Events/20121030/관객과의대화2.jpg' />","2011-10-30 21:00:00.0","2011-10-30 21:00:00.0"
"29","햄릿6 관람후기 이벤트","2012-11-05","2012-11-30","<a href='http://www.nsartscenter.or.kr/Home/Community/PerfPostScript.aspx'><img width='694' height='1010' alt='' src='http://www.nsartscenter.or.kr/upload/Events/20121105/사이코패스후기이벤트(남산).jpg' /></a>","2011-11-01 00:05:00.0","2011-11-01 00:05:00.0"
"31","수예당화과자와 함께하는 2013년 새해맞이 이벤트! 소중한 분에게 편지쓰기!","2012-12-29","2013-01-20","<a href='http://www.suyedang.com/'><img alt='' width='700' height='2216' src='http://www.nsartscenter.or.kr/upload/Events/20130102/121226_event.jpg' /></a>","2012-12-01 00:02:00.0","2012-12-01 00:02:00.0"
"32","사라지다 삼삼오오 티켓 예매자 선착순 대림미술관 티켓 증정 이벤트","2012-12-29","2013-01-19","<a href='http://www.nsartscenter.or.kr/Home/Perf/PerfDetail.aspx?IdPerf=975'><img alt='' width='700' height='1494' src='http://www.nsartscenter.or.kr/upload/Events/20130102/대림미술관_PAGE.jpg' /></a><br /> <br /> &nbsp;* &quot;사라지다&quot; 삼삼오오 티켓(여성 3인이상 구매시 50% 할인되는 티켓) 예.매.자 본인에게<br /> &nbsp;&nbsp;&nbsp; &nbsp;대림미술관 &quot;스와로브스키 그 빛나는 환상&quot;전 관람 기회를 드립니다. <br /> <br /> &nbsp;* 선착순 증정이 끝나면 이벤트는 마감됩니다 :)&nbsp;<br /> <br /> &nbsp;*&nbsp;이벤트 당첨자 및&nbsp;관람 방법 안내는&nbsp;이벤트 마감 후 개별 연락 드립니다.<br />","2012-12-01 00:02:00.0","2012-12-01 00:02:00.0"
"34","수예당화과자와 함께하는 독살미녀 윤정빈 이벤트! (공연장 로비에서 진행됩니다.)","2013-03-12","2013-03-31","<meta http-equiv='Content-Type' content='text/html; charset=utf-8'><img border='0' usemap='#Map' alt='' src='http://www.nsartscenter.or.kr/upload/Banner/20130312/20130312_130312_event1.jpg' />* 본 이벤트는 &lt;독살미녀 윤정빈&gt;공연 기간 동안 공연장 로비에서 진행됩니다.<br /> * 당첨 선물은 공연이 끝난 후에 일괄 배송됩니다.<br /> <br /> <br /> <br /> <map id='Map' name='Map'> <area shape='rect' target='_blank' coords='21633764973430' href='http://www.suyedang.com/shop/main/intro.php' /></map></meta>","2012-12-02 23:02:00.0","2012-12-02 23:02:00.0"
"35","모단걸응접실과함께하는 모여라 이벤트!","2013-03-13","2013-03-31","&nbsp;<img alt='' width='0' height='0' src='http://www.nsartscenter.or.kr/upload/Events/20130313/모단걸_이벤트.jpg' /><img alt='' width='0' height='0' src='http://www.nsartscenter.or.kr/upload/Events/20130313/modand_event.jpg' /><a href='http://www.nsartscenter.or.kr/Home/Perf/PerfDetail.aspx?IdPerf=992'><img alt='' width='700' height='354' src='http://www.nsartscenter.or.kr/upload/Events/20130313/모단걸_이벤트1.jpg' /></a><br /> <br /> * 조기예매/프리뷰할인은 제외입니다.","2012-12-02 23:03:00.0","2012-12-02 23:03:00.0"
"36","농담 이벤트","2013-04-04","2013-04-28","<img width='700' height='1134' alt='' src='http://www.nsartscenter.or.kr/upload/Events/20130416/event_nongdam_end.jpg' />","2012-12-03 23:06:00.0","2012-12-03 23:06:00.0"
"37","농담이벤트 2","2013-04-16","2013-04-29","<a href='http://www.nsartscenter.or.kr/Home/Community/PerfPostScript.aspx'><img width='700' height='726' alt='' src='http://www.nsartscenter.or.kr/upload/Events/20130416/event_nongdam_2.jpg' /></a>","2012-12-03 23:06:00.0","2012-12-03 23:06:00.0"
"38","푸르른날에 관객과의 대화","2013-05-04","2013-05-28","<img alt='' width='615' height='1210' src='http://www.nsartscenter.or.kr/upload/Events/20130504/130318_[푸르른날에]관객과의대화.jpg' /><br /> &nbsp; * SNS 사전질문은 신시컴퍼니 트위터로 해주시기바랍니다 ^^<br /> <br /> &nbsp;&nbsp; - 신시컴퍼니 트위터: <a class='f_url' target='_blank' href='http://twitter.com/i_seensee'>twitter.com/i_seensee</a><br /> <br />","2012-12-05 00:04:00.0","2012-12-05 00:04:00.0"
"33","<사라지다>관람후기 이벤트","2012-12-29","2013-01-27","<a href='http://www.nsartscenter.or.kr/Home/Community/PerfPostScript.aspx'><br /> <img alt='' width='700' height='1313' src='http://www.nsartscenter.or.kr/upload/Events/20130103/관람후기이벤트page.jpg' /></a><br /> <br /> * 당첨자 상품은 티켓북 세트(티켓북1권+볼펜1)&nbsp;혹은 머그컵(Red or White)&nbsp;중 한가지로&nbsp;랜덤&nbsp;발송해 드립니다.<br /> <br /> * 당첨자 발표 후 발송 관련 개별 연락 드립니다.<br /> <br />","2012-11-30 22:08:00.0","2012-11-30 22:08:00.0"
"39","푸르른날에 후기이벤트","2013-05-04","2013-06-09","<a href='http://www.nsartscenter.or.kr/Home/Community/PerfPostScript.aspx'><img width='700' height='990' alt='' src='http://www.nsartscenter.or.kr/upload/Events/20130504/푸르른날에후기이벤트(700).jpg' /></a>","2012-12-05 00:04:00.0","2012-12-05 00:04:00.0"
"40","물탱크 정류장 이벤트!! <어느 예술가의 마지막 일주일> 영화 시사회 초대","2013-06-03","2013-06-13","<a href='http://www.nsartscenter.or.kr/Home/Perf/PerfDetail.aspx?IdPerf=995'><img width='700' height='3900' alt='' src='http://www.nsartscenter.or.kr/upload/Events/20130604/물탱크_이벤트_최종.jpg' /></a>","2012-12-06 00:04:00.0","2012-12-06 00:04:00.0"
"43","<물탱크 정류장> 이벤트","2013-06-12","2013-06-24","<meta http-equiv='Content-Type' content='text/html; charset=utf-8' /><img border='0' alt='' usemap='#Map' src='http://www.nsartscenter.or.kr/upload/Banner/20130612/20130612_watertank_event.jpg' /> <map id='Map' name='Map'> <area shape='rect' target='_blank' coords='27423387685' href='https://www.facebook.com/nsartscenter' /> <area shape='rect' target='_blank' coords='26703387966' href='https://twitter.com/studio_rebel' /> <area shape='rect' target='_blank' coords='269823891243' href='http://www.nsartscenter.or.kr/Home/Community/PerfPostScript.aspx' /></map>","2012-12-05 23:02:00.0","2012-12-05 23:02:00.0"
"44","씨네코드 선재와 함께하는 문화생활 지원 이벤트!","2013-06-24","2013-07-04","<div style='text-align: center'><span style='font-size: 13px'><font face='맑은 고딕'>씨네코드 선재와 함께하는<br /> </font></span><span style='font-size: 14pt'><span style='font-size: 24px'><font face='맑은 고딕'>문화생활 지원 이벤트!</font></span></span></div> <div style='text-align: center'><br /> &nbsp;</div> <div style='text-align: center'><u><span style='font-size: 12pt'><font face='맑은 고딕'>남산예술센터 홈페이지에서 연극 &lt;물탱크 정류장&gt;프리뷰 공연을 관람하시고</font></span></u></div> <div style='text-align: center'><span style='font-size: 12pt'><font face='맑은 고딕'>본인의 SNS(Facebook twitter)에&nbsp;후기를 남긴 후 <br /> SNS주소와&nbsp;아이디를&nbsp;댓글로 남겨주시면 추첨을 통하여</font></span></div> <div style='text-align: center'><span style='font-size: 12pt'><font face='맑은 고딕'>&lsquo;나와 코드가 맞는 영화관&rsquo; 씨네코드 선재에서 볼 수 있는</font></span></div> <div style='text-align: center'><font face='맑은 고딕'><span style='font-size: 12pt'>영화 &lt;에브리데이</span><span style='font-size: 12pt'>&gt; 관람권을 1인 2매 드립니다!</span></font></div> <div style='text-align: center'><span style='font-size: 12pt'><font face='맑은 고딕'>많은 응모 바랍니다.</font></span></div> <div style='text-align: center'>&nbsp;</div> <div style='text-align: center'><font size='2'><font face='맑은 고딕'>아직 영화관 &lsquo;씨네코드 선재&rsquo;를 모르신다면? 아래 클릭클릭!</font></font></div> <div style='text-align: center'><a href='http://cafe.naver.com/artsonjearthall'><font color='#0000ff' size='2' face='맑은 고딕'>http://cafe.naver.com/artsonjearthall</font></a></div> <div style='text-align: center'><br /> &nbsp;</div> <div style='text-align: center'><font size='2' face='맑은 고딕'>=========================================================</font></div> <div style='text-align: center'><font size='2'><font face='맑은 고딕'><br /> </font><span style='font-size: 13px'><font face='맑은 고딕'>이벤트 기간 : 6월 26일(수) ~ 7월 2일(화)</font></span></font></div> <div style='text-align: center'><span style='font-size: 13px'><font face='맑은 고딕'>당첨자 발표 : 7월 5일(금)</font></span></div> <div style='text-align: center'><span style='font-size: 13px'><font face='맑은 고딕'>초대권 사용 기간 : ~ 7/31(수)<br /> &nbsp;에브리데이 관람등급: 청소년 관람불가<br /> </font></span></div> <div style='text-align: center'><span style='font-size: 13px'>&nbsp;</span></div> <div style='text-align: center'><span style='font-size: 13px'><font face='맑은 고딕'>이벤트 문의 : 남산예술센터 극장운영팀 02) 758-2111</font></span></div> <div style='text-align: center'><span style='font-size: 13px'><span 맑은='' style='font-family: '>영화 관련 문의 : 씨네코드 선재 <strong><span 맑은='' style='font-family: '>02) 730-3200</span></strong></span></span><span 맑은='' style='font-family: '><strong><span 맑은='' style='font-family: '><br /> </span></strong></span></div> <div style='text-align: center'>&nbsp;</div> <div style='text-align: center'><font size='2' face='맑은 고딕'>=========================================================<br /> <img alt='' width='700' height='998' src='http://www.nsartscenter.or.kr/upload/Events/20130624/everyday_poster_700.jpg' /><br /> <br /> =========================================================<br /> <br /> </font></div>","2012-12-06 23:01:00.0","2012-12-06 23:01:00.0"
"47","<아버지의 집>트위터 기대평 이벤트!!","2013-09-27","2013-10-02","<a href='http://www.twitter.com'><img alt='아버지의 집 기대평 이벤트' width='700' height='746' src='http://www.nsartscenter.or.kr/upload/Events/20130927/아버지의집_기대평이벤트.jpg' /></a>","2012-12-08 21:00:00.0","2012-12-08 21:00:00.0"
"49","수예당화과자 이벤트","2013-09-30","2013-10-20","<a href='https://www.facebook.com/nsartscenter?hc_location=stream'><img width='700' height='1395' alt='' src='http://www.nsartscenter.or.kr/upload/Events/20131015/수예당이벤트1.jpg' /></a>.","2012-10-30 23:05:00.0","2012-10-30 23:05:00.0"
"54","<바후차라마타> 관람후기 이벤트","2014-04-09","2014-04-23","<div style='text-align: center'><img border='0' hspace='0' alt='바후차라마타 관람후기 이벤트' width='644' align='middle' height='636' usemap='#Map' src='http://www.nsartscenter.or.kr/upload/Events/20140409/140409_바후관람후기.jpg' /> <map id='Map' name='Map'> <area shape='rect' target='_top' coords='190346357386' href='http://www.nsartscenter.or.kr/Home/Community/PerfPostScript.aspx' /></map></div>","2013-12-04 00:09:00.0","2013-12-04 00:09:00.0"
"55","<푸르른 날에> 관람후기 이벤트","2014-05-23","2014-06-15","<div style='text-align: center'><img border='0' hspace='0' alt='푸르른날에 관람후기 이벤트' width='644' align='middle' height='650' usemap='#Map' src='http://www.nsartscenter.or.kr/upload/TempFolder/20140523/c250ed98-d-140523_event.jpg' /> <map id='Map' name='Map'> <area shape='rect' target='_top' coords='68331235371' href='http://www.nsartscenter.or.kr/Home/Community/PerfPostScript.aspx' /></map></div>","2013-12-04 22:03:00.0","2013-12-04 22:03:00.0"
"56","<즐거운 복희> 관람후기 이벤트","2014-08-19","2014-09-23","<img border='0' alt='' width='714' height='1064' usemap='#Map' src='http://www.nsartscenter.or.kr/upload/TempFolder/20140819/140819_event.jpg' /> <map name='Map'> <area shape='circle' target='_self' coords='13180351' href='http://www.nsartscenter.or.kr/Home/Community/PerfPostScript.aspx' /></map>","2013-12-08 22:03:00.0","2013-12-08 22:03:00.0"
"65","<왜 나는 조그마한 일에만 분개하는가> 관람후기 이벤트","2014-10-31","2014-12-04","<table border='0' cellspacing='0' cellpadding='0' style='width: 700px'>     <tbody>         <tr>             <td style='line-height: 0'><img border='0' alt='' usemap='#Map' src='http://www.nsartscenter.or.kr/images/2011/event/141031_why.jpg' /></td>         </tr>     </tbody> </table> <map id='Map' name='Map'> <area shape='poly' target='_top' coords='728533658543279062829362239511539389890072852' href='http://www.nsartscenter.or.kr/Home/Community/PerfPostScript.aspx' /></map>","2013-10-30 21:01:00.0","2013-10-30 21:01:00.0"
"66","<소뿔자르고주인오기전에도망가선생>관람후기 이벤트","2015-03-06","2015-03-31","<img border='0' usemap='#Map' alt='' src='http://www.nsartscenter.or.kr/images/2011/event/150304_event.jpg' /> <map name='Map'> <area shape='rect' coords='2429854601030' href='http://www.nsartscenter.or.kr/Home/Community/PerfPostScript.aspx' /></map>","2014-12-03 00:06:00.0","2014-12-03 00:06:00.0"
"67","<햇빛샤워> 광합성 사진올리기 이벤트!","2015-06-08","2015-06-28","<img alt='' width='637' height='538' src='http://www.nsartscenter.or.kr/upload/Events/20150608/150605_evnet1.jpg' /><br /> <a target='https://www.facebook.com/namsanarts/posts/1618580785053276' href='https://www.facebook.com/namsanarts?ref=ts&amp;fref=ts'><img alt='' width='637' height='464' src='http://www.nsartscenter.or.kr/upload/Events/20150608/150605_evnet2.jpg' /></a>","2014-12-06 00:08:00.0","2014-12-06 00:08:00.0"
"50","<터미널>과 함께하는 <살>이벤트","2013-10-23","2013-10-27","&nbsp;<img alt='' width='0' height='0' src='http://www.nsartscenter.or.kr/upload/Events/20131023/event_Sal.jpg' /><img alt='' width='700' height='700' src='http://www.nsartscenter.or.kr/upload/Events/20131023/event_Sal2.jpg' /><br /> <br /> * 위의 이벤트는 페이스북과 홈페이지에서 진행됩니다.<br /> * 당첨되신분들께는 이벤트 종료 후 개별연락 드립니다.<br type='_moz' />","2012-11-01 00:06:00.0","2012-11-01 00:06:00.0"
"51","<살>관련 문제풀고 대림미술관 <청춘 그 찬란한 기록>展 보러가자!","2013-11-04","2013-12-05",".<br /> <a href='http://www.nsartscenter.or.kr/Home/Community/Survey.aspx?smode=7&amp;ids=4&amp;page=1'><img alt='' width='700' height='767' src='http://www.nsartscenter.or.kr/upload/Events/20131106/남산11월이벤트-2.jpg' /></a>","2012-11-01 00:06:00.0","2012-11-01 00:06:00.0"
"52","2013 회원정보 수정이벤트!!","2013-11-28","2013-12-31","<p><a href='https://member.sfac.or.kr/?cmd=confirm'><img alt='' width='700' height='1018' src='http://www.nsartscenter.or.kr/upload/Events/20131128/131126_event.jpg' /></a></p>","2013-12-01 00:06:00.0","2013-12-01 00:06:00.0"
"61","<왜 나는 조그마한 일에만 분개하는가> 이벤트 '사연을 받습니다'","2014-08-25","2014-10-31","<img border='0' alt='' usemap='#Map' src='http://www.nsartscenter.or.kr/upload/TempFolder/20140825/140825_event_story.jpg' /> <map name='Map'> <area shape='rect' target='_blank' coords='557665591699' href='https://www.facebook.com/namsanarts' /> <area shape='rect' coords='373705556723' href='mailto:sinae8888@sfac.or.kr' /></map>","2013-12-09 00:03:00.0","2013-12-09 00:03:00.0"
"62","'ReSTAURANT 24 STReeT'이 함께하는 이벤트","2014-09-06","2014-09-22","<a target='_self' href='http://www.nsartscenter.or.kr/Home/Event/EventRead.aspx?id=62&amp;tab=0&amp;CurPage=1'><img border='0' alt='' src='http://www.nsartscenter.or.kr/upload/Events/20140906/140905_event.jpg' /></a>","2013-12-08 22:01:00.0","2013-12-08 22:01:00.0"
"63","<왜 나는 조그마한 일에만 분개하는가>공연 제목 패러디 이벤트!","2014-09-15","2014-09-30","<a target='_blank' href='https://www.facebook.com/namsanarts'><img border='0' alt='' src='http://www.nsartscenter.or.kr/upload/Events/20140915/140915_why.gif' /></a>","2013-12-08 23:05:00.0","2013-12-08 23:05:00.0"
"64","<투명인간> 관람후기 이벤트","2014-09-29","2014-10-21","<img width='714' height='1477' alt='' src='http://www.nsartscenter.or.kr/upload/Events/20141024/투명인간_관람후기.jpg' />","2013-10-30 22:04:00.0","2013-10-30 22:04:00.0"
"68","<햇빛샤워> 관람후기 이벤트","2015-07-17","2015-07-29","<br /> <a href='http://www.nsartscenter.or.kr/Home/Community/PerfPostScript.aspx'><img alt='' width='700' height='1000' src='http://www.nsartscenter.or.kr/upload/Events/20150717/제목-없음-11.gif' /></a><br />","2014-12-06 23:07:00.0","2014-12-06 23:07:00.0"
"69","[성북동비둘기 탐구영역] 문제 풀고 비타민D로 건강해지자!","2015-10-01","2015-10-18","<img alt='' width='700' height='592' src='http://www.nsartscenter.or.kr/upload/Events/20151001/151001_event12.jpg' /><br /> <a href='http://www.nsartscenter.or.kr/Home/Community/Survey.aspx?smode=7&amp;ids=5&amp;page=1'><img alt='' src='http://www.nsartscenter.or.kr/upload/Events/20151001/4.jpg' /></a><br /> <br /> <br /> <br /> <br /> <br /> <br /> <br /> <br /> <br /> <br /> <br /> <br />","2014-10-31 00:01:00.0","2014-10-31 00:01:00.0"
"4","됴화만발 관람후기 이벤트","2011-09-06","2011-09-19","<style type='text/css'> <!-- body { 	margin-left: 0px; 	margin-top: 0px; 	margin-right: 0px; 	margin-bottom: 0px; } --></style> <table cellspacing='0' cellpadding='0' border='0'>     <tbody>         <tr>             <td><img border='0' alt='' width='714' height='1008' usemap='#Map' src='http://www.nsartscenter.or.kr/upload/Banner/20110919/20110919_110919_event1.gif' /></td>         </tr>     </tbody> </table> <map id='Map' name='Map'> <area shape='rect' alt='' target='_self' coords='327111005' href='http://www.nsartscenter.or.kr/Home/Community/PerfPostScript.aspx' /></map>","2016-10-30 21:01:00.0","2016-10-30 21:01:00.0"
"8","꿈속의 꿈 관람후기 이벤트","2011-10-11","2011-10-24","<a target='_self' href='http://www.nsartscenter.or.kr/Home/Community/PerfPostScript.aspx?CurPage=1&amp;Category1=0&amp;Category2=945&amp;SrchType=1&amp;SrchTxt=&amp;BeUse=1&amp;SrtCol=0&amp;SrtFlg=DESC'><img alt='' width='700' height='1312' src='http://www.nsartscenter.or.kr/upload/Events/20111011/111011_event4.gif' /></a>","2016-10-30 21:01:00.0","2016-10-30 21:01:00.0"
"53","<남산도큐멘타 : 연극의 연습 -극장 편> 관람 후기 이벤트","2014-03-20","2014-04-02","&nbsp;<img src='http://www.nsartscenter.or.kr/imageshttp://www.nsartscenter.or.kr/upload/ns_documentEvt.jpg' alt='' />","2013-12-04 00:08:00.0","2013-12-04 00:08:00.0"
"70","<잠자는 변신의 카프카> 관람후기 이벤트","2015-10-14","2015-10-25","&nbsp;<a href='http://www.nsartscenter.or.kr/Home/Community/PerfPostScript.aspx'><img src='http://www.nsartscenter.or.kr/upload/Events/20151014/kafka_review.jpg' width='700' height='913' alt='' /></a>","2014-10-30 23:04:00.0","2014-10-30 23:04:00.0"
"71","<태풍기담(颱風奇譚)> 관람후기 이벤트","2015-10-25","2015-11-15","<a href='http://www.nsartscenter.or.kr/Home/Community/PerfPostScript.aspx'><img alt='' width='700' height='990' src='http://www.nsartscenter.or.kr/upload/Events/20151025/123451.jpg' /></a>","2014-10-30 22:05:00.0","2014-10-30 22:05:00.0"
"72","<치정> 관람후기 이벤트","2015-11-19","2015-12-13","<img width='700' height='1253' alt='' src='http://www.nsartscenter.or.kr/upload/Events/20151122/event_!1.jpg' />","2014-10-31 22:02:00.0","2014-10-31 22:02:00.0"
"46","<천 개의 눈>관람후기 이벤트","2013-09-04","2013-09-25","<a href='http://www.nsartscenter.or.kr/Home/Community/PerfPostScript.aspx'><img alt='관람후기이벤트' width='700' height='415' src='http://www.nsartscenter.or.kr/upload/Events/20130906/관람후기700.jpg' /></a>","2012-12-09 00:06:00.0","2012-12-09 00:06:00.0"
"13","회원정보 업데이트 이벤트","2012-02-01","2012-02-29","<p><a target='_blank' href='https://member.sfac.or.kr/?cmd=confirm'><img alt='' width='700' height='1018' src='http://www.nsartscenter.or.kr/upload/Events/20120206/120131_event.jpg' /></a></p>","2011-12-03 00:02:00.0","2011-12-03 00:02:00.0"
"27","공지영의<의자놀이> 증정 이벤트","2012-10-27","2012-11-05","<img alt='의자놀이' width='700' height='1667' src='http://www.nsartscenter.or.kr/upload/Events/20121026/의자놀이.jpg' />","2011-11-01 00:08:00.0","2011-11-01 00:08:00.0"