"서비스구분","서비스ID","대분류명","소분류명","서비스상태","서비스명","결제방법","장소명","서비스대상","바로가기URL","장소X좌표","장소Y좌표","서비스개시시작일시","서비스개시종료일시","접수시작일시","접수종료일시","지역명"
"자체","S190703083444134092","교육","건강/스포츠","접수종료","2019년 생존수영 강습회(주말)","유료(요금안내문의)","잠실종합운동장>잠실제1수영장","가족(성인자녀)","http://yeyak.seoul.go.kr/reservation/view.web?rsvsvcid=S190703083444134092","","","2019-07-03 00:00:00.0","2021-09-30 00:00:00.0","2019-07-08 09:00:00.0","2019-07-15 18:00:00.0","송파구"
"자체","S200217154255956565","교육","체험/견학","예약일시중지","[송파책박물관] [초등고학년] 비밀의 서재 할아버지의 책을 찾아라!","유료(요금안내문의)","송파책박물관","가족(초등고학년(4-6학년) 동반 가족 )","http://yeyak.seoul.go.kr/reservation/view.web?rsvsvcid=S200217154255956565","37.49888597821397","127.10438467827207","2020-04-01 00:00:00.0","2020-07-18 00:00:00.0","2020-04-01 00:00:00.0","2020-07-17 17:00:00.0","송파구"
"자체","S200217155858878841","교육","체험/견학","예약일시중지","[송파책박물관] [초등저학년] (토)조선의 세책점으로 오세요!","유료(요금안내문의)","송파책박물관","가족(초등저학년(1~3학년) 동반 가족)","http://yeyak.seoul.go.kr/reservation/view.web?rsvsvcid=S200217155858878841","37.49888597821397","127.10438467827207","2020-04-01 00:00:00.0","2020-07-18 00:00:00.0","2020-04-01 00:00:00.0","2020-07-17 17:00:00.0","송파구"
"자체","S200217160857530701","교육","체험/견학","예약일시중지","[송파책박물관] [5-7세] 반짝반짝 동그라미 책","유료(요금안내문의)","송파책박물관","가족(5-7세 어린이 동반 가족)","http://yeyak.seoul.go.kr/reservation/view.web?rsvsvcid=S200217160857530701","37.49888597821397","127.10438467827207","2020-04-01 00:00:00.0","2020-07-17 00:00:00.0","2020-04-01 00:00:00.0","2020-07-17 17:00:00.0","송파구"
"자체","S200223160708917804","교육","역사","접수종료","2020 상반기 <꿈마을고고학연구소> '발굴탐험대 땅속 타임캡슐을 찾아라!'","무료","몽촌역사관","어린이(초등학교 3-4학년 학급)","http://yeyak.seoul.go.kr/reservation/view.web?rsvsvcid=S200223160708917804","37.52393624779412","127.12428557113996","2020-02-24 00:00:00.0","2020-06-30 00:00:00.0","2020-02-24 10:00:00.0","2020-03-02 17:00:00.0","송파구"
"자체","S200223174030414154","교육","역사","접수종료","2020 상반기 <꿈마을놀이체험교실> '누가누가 잘하나 우리놀이'","무료","몽촌역사관","어린이(초등 1-4학년 학급)","http://yeyak.seoul.go.kr/reservation/view.web?rsvsvcid=S200223174030414154","37.52393624779412","127.12428557113996","2020-02-24 00:00:00.0","2020-06-30 00:00:00.0","2020-02-24 10:00:00.0","2020-03-02 17:00:00.0","송파구"
"자체","S200224093926801096","교육","역사","접수종료","2020 하반기 <꿈마을고고학연구소> '백제유물을 찾아 복원하라!'","무료","몽촌역사관","어린이(초등 3-4학년 학급)","http://yeyak.seoul.go.kr/reservation/view.web?rsvsvcid=S200224093926801096","37.52393624779412","127.12428557113996","2020-02-24 00:00:00.0","2020-11-30 00:00:00.0","2020-02-24 10:00:00.0","2020-03-02 17:00:00.0","송파구"
"자체","S200224095338561663","교육","역사","접수종료","2020 하반기 <꿈마을놀이체험교실> '말과 주사위로 배우는 전통놀이와 문화'","무료","몽촌역사관","어린이(초등 1-4학년 학급)","http://yeyak.seoul.go.kr/reservation/view.web?rsvsvcid=S200224095338561663","37.52393624779412","127.12428557113996","2020-02-24 00:00:00.0","2020-11-30 00:00:00.0","2020-02-24 10:00:00.0","2020-03-02 17:00:00.0","송파구"
"자체","S200421141454320620","교육","체험/견학","접수중","[온라인][초등 전학년] 흥얼흥얼 노래책 이야기","유료","송파책박물관","어린이","http://yeyak.seoul.go.kr/reservation/view.web?rsvsvcid=S200421141454320620","37.49888597821397","127.10438467827207","2020-04-22 00:00:00.0","2020-06-27 00:00:00.0","2020-04-22 00:00:00.0","2020-06-23 17:00:00.0","송파구"
"자체","S200422154040646488","교육","체험/견학","접수중","[온라인] [6-7세] 반짝반짝 동그라미 책","유료","송파책박물관","가족(6-7세 어린이 동반 가족)","http://yeyak.seoul.go.kr/reservation/view.web?rsvsvcid=S200422154040646488","37.49888597821397","127.10438467827207","2020-04-22 00:00:00.0","2020-06-27 00:00:00.0","2020-04-22 00:00:00.0","2020-06-23 14:00:00.0","송파구"
"자체","S200504103539256133","교육","역사","접수종료","2020 상반기 꿈마을울림교실 <둥둥! 우리 음악 속으로>","무료","몽촌역사관","가족(초등 1-4학년 어린이와 가족)","http://yeyak.seoul.go.kr/reservation/view.web?rsvsvcid=S200504103539256133","37.52393624779412","127.12428557113996","2020-05-19 00:00:00.0","2020-06-30 00:00:00.0","2020-05-19 10:00:00.0","2020-05-24 18:00:00.0","송파구"
"자체","S200506161645622254","교육","역사","접수종료","2020 몽촌가족체험교실 <찾아라! 세계유산 백제>","무료","몽촌역사관","가족(초등3~4학년 어린이와 보호자)","http://yeyak.seoul.go.kr/reservation/view.web?rsvsvcid=S200506161645622254","37.52393624779412","127.12428557113996","2020-05-19 00:00:00.0","2020-06-30 00:00:00.0","2020-05-19 10:00:00.0","2020-05-26 18:00:00.0","송파구"
"자체","S200507113134007015","교육","역사","접수중","(토) 2020년 주말가족교육 5~6월 <영원히 사는 곳 무덤> 참여 가족 모집","무료","한성백제박물관","가족(초등학생 동반 가족(직계가족))","http://yeyak.seoul.go.kr/reservation/view.web?rsvsvcid=S200507113134007015","37.51542719175843","127.12080002579839","2020-05-07 00:00:00.0","2020-06-27 00:00:00.0","2020-05-08 10:00:00.0","2020-06-26 17:00:00.0","송파구"
"자체","S200508173750236076","교육","체험/견학","접수중","[온라인][초등 고학년] 비밀의 서재 할아버지의 책을 찾아라","유료","송파책박물관","어린이","http://yeyak.seoul.go.kr/reservation/view.web?rsvsvcid=S200508173750236076","37.49888597821397","127.10438467827207","2020-05-08 00:00:00.0","2020-06-27 00:00:00.0","2020-05-08 00:00:00.0","2020-06-24 14:00:00.0","송파구"
"자체","S200512151653769325","교육","역사","접수종료","제18기 박물관 대학(6회 일괄접수)","무료","한성백제박물관","성인","http://yeyak.seoul.go.kr/reservation/view.web?rsvsvcid=S200512151653769325","37.51542719175843","127.12080002579839","2020-05-12 00:00:00.0","2020-06-23 00:00:00.0","2020-05-12 10:00:00.0","2020-05-18 17:00:00.0","송파구"
"자체","S200520110720146326","교육","역사","예약일시중지","2020년 6월 몽촌역사관ㆍ백제집자리전시관 전시 관람 사전 예약","무료","몽촌역사관","제한없음","http://yeyak.seoul.go.kr/reservation/view.web?rsvsvcid=S200520110720146326","37.52393624779412","127.12428557113996","2020-05-26 00:00:00.0","2020-06-30 00:00:00.0","2020-05-26 10:00:00.0","2020-06-29 23:59:00.0","송파구"
"자체","S200525162622191574","교육","자연/과학","예약일시중지","방이습지 유아생태교실 ","무료","방이동 생태경관보전지역","유아(6세이상 개인 및 단체)","http://yeyak.seoul.go.kr/reservation/view.web?rsvsvcid=S200525162622191574","","","2020-05-26 00:00:00.0","2020-06-25 00:00:00.0","2020-05-26 09:00:00.0","2020-06-19 11:00:00.0","송파구"
"자체","S200525164456021174","교육","자연/과학","예약일시중지","방이습지 유아 관찰 교실","무료","방이동 생태경관보전지역","유아(6세이상 개인 및 단체)","http://yeyak.seoul.go.kr/reservation/view.web?rsvsvcid=S200525164456021174","","","2020-05-26 00:00:00.0","2020-06-30 00:00:00.0","2020-05-26 09:00:00.0","2020-06-25 11:00:00.0","송파구"
"자체","S200525165012837726","교육","자연/과학","예약일시중지","방이습지 초등 관찰 교실","무료","방이동 생태경관보전지역","어린이(초등학생 개인 및 단체)","http://yeyak.seoul.go.kr/reservation/view.web?rsvsvcid=S200525165012837726","","","2020-05-26 00:00:00.0","2020-06-30 00:00:00.0","2020-05-26 09:00:00.0","2020-06-25 11:00:00.0","송파구"
"자체","S200525165620019191","교육","자연/과학","예약일시중지","(초등)방이습지 보물을 찾아라","무료","방이동 생태경관보전지역","어린이(초등학교 개인 및 단체)","http://yeyak.seoul.go.kr/reservation/view.web?rsvsvcid=S200525165620019191","","","2020-05-26 00:00:00.0","2020-06-24 00:00:00.0","2020-05-26 09:00:00.0","2020-06-19 11:00:00.0","송파구"
"자체","S200525171332561584","교육","자연/과학","예약일시중지","(초등)누에 체험 교실","무료","방이동 생태경관보전지역","어린이(초등학생 개인 및 단체)","http://yeyak.seoul.go.kr/reservation/view.web?rsvsvcid=S200525171332561584","","","2020-05-26 00:00:00.0","2020-06-26 00:00:00.0","2020-05-26 09:00:00.0","2020-06-19 11:00:00.0","송파구"
"자체","S200525171824221262","교육","자연/과학","예약일시중지","방이습지 중학생 관찰 교실","무료","방이동 생태경관보전지역","청소년(중학생 개인 및 단체)","http://yeyak.seoul.go.kr/reservation/view.web?rsvsvcid=S200525171824221262","","","2020-05-26 00:00:00.0","2020-06-30 00:00:00.0","2020-05-26 09:00:00.0","2020-06-25 11:00:00.0","송파구"
"자체","S200525211621217762","교육","자연/과학","예약일시중지","(중학생)방이습지 보물을 찾아라","무료","방이동 생태경관보전지역","청소년(중학생 개인 및 단체)","http://yeyak.seoul.go.kr/reservation/view.web?rsvsvcid=S200525211621217762","","","2020-05-26 00:00:00.0","2020-06-24 00:00:00.0","2020-05-26 09:00:00.0","2020-06-19 11:00:00.0","송파구"
"자체","S200525212435873602","교육","자연/과학","예약일시중지","(중학생)누에 체험 교실","무료","방이동 생태경관보전지역","청소년(중학생 개인 및 단체)","http://yeyak.seoul.go.kr/reservation/view.web?rsvsvcid=S200525212435873602","","","2020-05-26 00:00:00.0","2020-06-26 00:00:00.0","2020-05-26 09:00:00.0","2020-06-19 11:00:00.0","송파구"
"자체","S200526081854174926","교육","자연/과학","예약일시중지","방이습지 생태 탐방","무료","방이동 생태경관보전지역","제한없음(대상 제한 없음)","http://yeyak.seoul.go.kr/reservation/view.web?rsvsvcid=S200526081854174926","","","2020-05-26 00:00:00.0","2020-06-25 00:00:00.0","2020-05-26 09:00:00.0","2020-06-19 11:00:00.0","송파구"
"자체","S200526082423259204","교육","자연/과학","예약일시중지","방이습지 새를 찾아라","무료","방이동 생태경관보전지역","제한없음(초등학생 이상)","http://yeyak.seoul.go.kr/reservation/view.web?rsvsvcid=S200526082423259204","","","2020-06-04 00:00:00.0","2020-06-27 00:00:00.0","2020-05-26 09:00:00.0","2020-06-22 11:00:00.0","송파구"
"자체","S200526083044119353","교육","자연/과학","예약일시중지","(가족)방이습지 보물을 찾아라","무료","방이동 생태경관보전지역","제한없음(가족 또는 개인)","http://yeyak.seoul.go.kr/reservation/view.web?rsvsvcid=S200526083044119353","","","2020-06-06 00:00:00.0","2020-06-28 00:00:00.0","2020-05-26 09:00:00.0","2020-06-23 11:00:00.0","송파구"
"자체","S200526083429875615","교육","자연/과학","예약일시중지","(가족)방이습지 물 속 생물을 찾아라","무료","방이동 생태경관보전지역","제한없음(가족 또는 개인)","http://yeyak.seoul.go.kr/reservation/view.web?rsvsvcid=S200526083429875615","","","2020-06-06 00:00:00.0","2020-06-28 00:00:00.0","2020-05-26 09:00:00.0","2020-06-23 11:00:00.0","송파구"
"자체","S200526083902754388","교육","자연/과학","예약일시중지","(가족)누에 체험 교실","무료","방이동 생태경관보전지역","제한없음(가족 또는 개인)","http://yeyak.seoul.go.kr/reservation/view.web?rsvsvcid=S200526083902754388","","","2020-06-06 00:00:00.0","2020-06-28 00:00:00.0","2020-05-26 09:00:00.0","2020-06-23 11:00:00.0","송파구"
"자체","S200526084311094347","교육","자연/과학","예약일시중지","(가족)동시 따라 쓰기 교실","무료","방이동 생태경관보전지역","제한없음(가족 또는 개인)","http://yeyak.seoul.go.kr/reservation/view.web?rsvsvcid=S200526084311094347","","","2020-06-06 00:00:00.0","2020-06-28 00:00:00.0","2020-05-26 09:00:00.0","2020-06-23 11:00:00.0","송파구"
"자체","S200526084607529832","교육","자연/과학","예약일시중지","자연물 만들기","무료","방이동 생태경관보전지역","제한없음(누구나)","http://yeyak.seoul.go.kr/reservation/view.web?rsvsvcid=S200526084607529832","","","2020-06-06 00:00:00.0","2020-06-28 00:00:00.0","2020-05-26 09:00:00.0","2020-06-23 11:00:00.0","송파구"
"자체","S200526084841607145","교육","자연/과학","예약일시중지","방이습지 저녁 나들이","무료","방이동 생태경관보전지역","제한없음(누구나)","http://yeyak.seoul.go.kr/reservation/view.web?rsvsvcid=S200526084841607145","","","2020-06-05 00:00:00.0","2020-06-26 00:00:00.0","2020-05-26 09:00:00.0","2020-06-19 11:00:00.0","송파구"
"자체","S200526153909217667","교육","체험/견학","접수중","(토)(일)(격주수)송파둘레길21km길라잡이 (성내천길코스)","무료","송파둘레길 성내천길(집결지)","청소년(초등생4학년 이상)성인제한없음","http://yeyak.seoul.go.kr/reservation/view.web?rsvsvcid=S200526153909217667","37.5206867318088","127.103811089444","2020-05-26 00:00:00.0","2020-11-29 00:00:00.0","2020-05-26 09:00:00.0","2020-11-22 18:00:00.0","송파구"
"자체","S200608093839551128","교육","체험/견학","접수중","(토)(일)(격주수)송파둘레길21km 길라잡이(장지천길코스)","무료","송파둘레길 장지천길(집결지)","제한없음","http://yeyak.seoul.go.kr/reservation/view.web?rsvsvcid=S200608093839551128","37.4978146566399","127.135158595127","2020-06-07 00:00:00.0","2020-11-29 00:00:00.0","2020-06-07 00:00:00.0","2020-11-22 00:00:00.0","송파구"
"자체","S200608101712643784","교육","체험/견학","접수중","(토)(일)(격주수)송파둘레길21km길라잡이 (탄천길 코스)","무료","송파둘레길 탄천길(집결지)","청소년(초등생4학년 이상)성인제한없음","http://yeyak.seoul.go.kr/reservation/view.web?rsvsvcid=S200608101712643784","37.4781192050612","127.126424204036","2020-06-08 00:00:00.0","2020-11-29 00:00:00.0","2020-06-08 09:00:00.0","2020-11-22 18:00:00.0","송파구"
"자체","S200608102138823588","교육","체험/견학","접수중","(토)(일)(격주수)송파둘레길21km길라잡이 (한강길 코스)","무료","송파둘레길 한강길(집결지)","청소년(초등생4학년 이상)성인제한없음","http://yeyak.seoul.go.kr/reservation/view.web?rsvsvcid=S200608102138823588","37.5109692748993","127.073356018706","2020-06-08 00:00:00.0","2020-11-29 00:00:00.0","2020-06-08 09:00:00.0","2020-11-22 18:00:00.0","송파구"